{
    "name": "AdminEmployeeFeedback",
    "alias": "adminemployeefeedback",
    "description": "",
    "keywords": [],
    "order": 0,
    "providers": [
        "Modules\\AdminEmployeeFeedback\\Providers\\AdminEmployeeFeedbackServiceProvider"
    ],
    "aliases": {},
    "files": [],
    "requires": []
}
